-------------------------------------------------------------------------------
Test set: org.exemple.gestioncouverture.dal.AppTest
-------------------------------------------------------------------------------
Tests run: 1, Failures: 0, Errors: 0, Skipped: 0, Time elapsed: 0.134 s - in org.exemple.gestioncouverture.dal.AppTest
